SiteName,LibraryName,LibraryLinkName,OrderCategories,TopLevelFolder,Level1,Level2,Level3,Level4
Corporate Reports,Finance,Finance,1,AE Reports,AE Reports,,,
Corporate Reports,Finance,Finance,1,Billing Reports,Billing Reports,,,
Corporate Reports,Finance,Finance,1,Credit Status Reports,Credit Status Reports,,,
Corporate Reports,Finance,Finance,1,Credits & Collections,Credits and Collections,,,
Corporate Reports,Finance,Finance,1,Daily Dashboards,Daily Dashboards,,,
Corporate Reports,Finance,Finance,1,Linear Finance Reports,Linear Finance Reports,,,
Corporate Reports,Finance,Finance,1,Over Delivery Reports,Over Delivery Reports,,,
Corporate Reports,Finance,Finance,1,Paid Programming,Paid Programming,,,
Corporate Reports,Finance,Finance,1,Pipeline Summary,Pipeline Summary,,,
Corporate Reports,Finance,Finance,1,Pipeline Reports,Pipeline Reports,,,
Corporate Reports,Finance,Finance,1,Spending Analysis,Spending Analysis,,,
Corporate Reports,Finance,Finance,1,Sales Models,Sales Models,,,
Corporate Reports,Finance,Finance,1,Upfront Process,Upfront Process,,,
Corporate Reports,Finance,Finance,1,Upfront Reports,Upfront Reports,,,
Corporate Reports,Finance,Finance,1,Viacom Earning Calls,Viacom Earning Calls,,,
Corporate Reports,Pricing And Inventory,Pricing & Inventory,2,Commonly Confused Selling Titles,Commonly Confused Selling Titles,,,
Corporate Reports,Pricing And Inventory,Pricing & Inventory,2,CSR Account List,CSR Account List,,,
Corporate Reports,Pricing And Inventory,Pricing & Inventory,2,DR Allocations,DR Allocations,,,
Corporate Reports,Pricing And Inventory,Pricing & Inventory,2,Liability - Cross Net Summaries,Liability Cross Net Summaries,,,
Corporate Reports,Pricing And Inventory,Pricing & Inventory,2,Liability - Studio,Liability Studio,,,
Corporate Reports,Pricing And Inventory,Pricing & Inventory,2,Liability - Top 20,Liability Top 20,,,
Corporate Reports,Pricing And Inventory,Pricing & Inventory,2,Liability Transfer Document,Liability Transfer Document,,,
Corporate Reports,Pricing And Inventory,Pricing & Inventory,2,Marketing Unit Tracker,Marketing Unit Tracker,,,
Corporate Reports,Pricing And Inventory,Pricing & Inventory,2,Priority Programming,Priority Programming,,,
Corporate Reports,Pricing And Inventory,Pricing & Inventory,2,Ratings Risk,Ratings Risk,,,
Corporate Reports,Pricing And Inventory,Pricing & Inventory,2,Rules of the Road,Rules of the Road,,,
Corporate Reports,Pricing And Inventory,Pricing & Inventory,2,Stewardship Reports,Stewardship Reports,,,
Corporate Reports,Pricing And Inventory,Pricing & Inventory,2,P&I Templates,PandI Templates,,,
Corporate Reports,Pricing And Inventory,Pricing & Inventory,2,Delivered CPM,Delivered CPM,,,
Corporate Reports,Pricing And Inventory,Pricing & Inventory,2,Revenue at Risk,Revenue at Risk,,,
Corporate Reports,Linear Operations,Linear Operations,3,AE Budget Splits,AE Budget Splits,,,
Corporate Reports,Linear Operations,Linear Operations,3,Advertiser Reports,Advertiser Reports,,,
Corporate Reports,Linear Operations,Linear Operations,3,BoB Reports,BoB Reports,,,
Corporate Reports,Linear Operations,Linear Operations,3,Missing Dollars,Missing Dollars,,,
Corporate Reports,Linear Operations,Linear Operations,3,BSSG,BSSG,,,
Corporate Reports,Linear Operations,Linear Operations,3,Post Buy Reports,Post Buy Reports,,,
Corporate Reports,Linear Operations,Linear Operations,3,Client Dashboard,Client Dashboard,,,
Corporate Reports,Linear Operations,Linear Operations,3,Direct Response,Direct Response,,,
Corporate Reports,Linear Operations,Linear Operations,3,Paid Programming,Paid Programming,,,
Corporate Reports,Linear Operations,Linear Operations,3,Weekly Billing Reports (ABCs),Weekly Billing Reports (ABCs),,,
Corporate Reports,Digital Operations,Digital Operations,4,Revenue by AE,Revenue by AE,,,
Corporate Reports,Digital Operations,Digital Operations,4,Week Over Week BOB,Week Over Week BOB,,,
Corporate Reports,Digital Operations,Digital Operations,4,Pipeline by AE,Pipeline by AE,,,
Corporate Reports,Digital Operations,Digital Operations,4,Pipeline Week Over Week,Pipeline Week Over Week,,,
Corporate Reports,Digital Operations,Digital Operations,4,Digital Pulse,Digital Pulse,,,
Corporate Reports,Digital Operations,Digital Operations,4,Missing Dollars,Missing Dollars,,,
Corporate Reports,Digital Operations,Digital Operations,4,Digital Dashboards,Digital Dashboards,,,
