SiteName,LibraryName,LibraryLinkName,OrderCategories,TopLevelFolder,Level1,Level2,Level3,Level4
Nickelodeon,Core Materials,Core Materials,1,Nick Kits,Nick Kits,Kids Kit,,
Nickelodeon,Core Materials,Core Materials,1,Nick Kits,Nick Kits,Family Kit,,
Nickelodeon,Core Materials,Core Materials,1,Nick Kits,Nick Kits,Teens Young Adult Kit,,
Nickelodeon,Core Materials,Core Materials,1,Fall Presentations,Fall Presentations,Bridge Deck,,
Nickelodeon,Core Materials,Core Materials,1,Fall Presentations,Fall Presentations,Family Deck,,
Nickelodeon,Core Materials,Core Materials,1,Fall Presentations,Fall Presentations,AFO Deck,,
Nickelodeon,Core Materials,Core Materials,1,Industry Event Presentations,Industry Event Presentations,Licensing Show,,
Nickelodeon,Core Materials,Core Materials,1,Industry Event Presentations,Industry Event Presentations,Ad Age Digital Conference,,
Nickelodeon,Core Materials,Core Materials,1,Property Materials,Property Materials,Property Catalog,,
Nickelodeon,Core Materials,Core Materials,1,Property Materials,Property Materials,Additional Materials,,
Nickelodeon,Core Materials,Core Materials,1,Tentpole Materials,Tentpole Materials,,,"	"
Nickelodeon,Core Materials,Core Materials,1,Network Site & App Materials,Network Site and App Materials,NickNets Catalog,,
Nickelodeon,Core Materials,Core Materials,1,VOD Materials,VOD Materials,Sales Materials,,
Nickelodeon,Core Materials,Core Materials,1,VOD Materials,VOD Materials,Internal Materials,,
Nickelodeon,Core Materials,Core Materials,1,Demo Materials,Demo Materials,,,
Nickelodeon,Core Materials,Core Materials,1,Case Study Catalog,Case Study Catalog,Auto,,
Nickelodeon,Core Materials,Core Materials,1,Case Study Catalog,Case Study Catalog,CPG,,
Nickelodeon,Core Materials,Core Materials,1,Case Study Catalog,Case Study Catalog,Food and Beverage,,
Nickelodeon,Core Materials,Core Materials,1,Case Study Catalog,Case Study Catalog,Retail,,
Nickelodeon,Core Materials,Core Materials,1,Case Study Catalog,Case Study Catalog,Studios,,
Nickelodeon,Core Materials,Core Materials,1,Case Study Catalog,Case Study Catalog,Toys,,
Nickelodeon,Core Materials,Core Materials,1,Case Study Catalog,Case Study Catalog,Travel,, 
Nickelodeon,Core Materials,Core Materials,1,Case Study Catalog,Case Study Catalog,Other,,
Nickelodeon,Core Materials,Core Materials,1,Additional Materials,Additional Materials,,,
Nickelodeon,Integrated Marketing,Integrated Marketing,2,Kids Sponsorships,Kids Sponsorships,,,
Nickelodeon,Integrated Marketing,Integrated Marketing,2,Teens/Young Adults Sponsorships,Teens Young Adults Sponsorships,,,
Nickelodeon,Integrated Marketing,Integrated Marketing,2,Adults/Family Sponsorships,Adults Family Sponsorships,,,
Nickelodeon,Integrated Marketing,Integrated Marketing,2,Tentpole Sponsorships,Tentpole Sponsorships,Kids' Choice Awards,,
Nickelodeon,Integrated Marketing,Integrated Marketing,2,Tentpole Sponsorships,Tentpole Sponsorships,Kids' Choice Sports,,
Nickelodeon,Integrated Marketing,Integrated Marketing,2,Tentpole Sponsorships,Tentpole Sponsorships,HALO Awards,,
Nickelodeon,Integrated Marketing,Integrated Marketing,2,Tentpole Sponsorships,Tentpole Sponsorships,Worldwide Day of Play,,
Nickelodeon,Integrated Marketing,Integrated Marketing,2,Activation & Social,Activation and Social,Social Materials,,
Nickelodeon,Integrated Marketing,Integrated Marketing,2,Activation & Social,Activation and Social,CRM Materials,,
Nickelodeon,Integrated Marketing,Integrated Marketing,2,Ad Products,Ad Products,Ad Product Catalog,,
Nickelodeon,Integrated Marketing,Integrated Marketing,2,Ad Products,Ad Products,Ad Products Portal,,
Nickelodeon,Integrated Marketing,Integrated Marketing,2,On-Air Pitch Calendars,On Air Pitch Calendars,,,
Nickelodeon,Integrated Marketing,Integrated Marketing,2,Digital Pitch Calendars,Digital Pitch Calendars,,,
Nickelodeon,Integrated Marketing,Integrated Marketing,2,Studio Calendar,Studio Calendar,,,
Nickelodeon,Integrated Marketing,Integrated Marketing,2,Forms,Forms,,,
Nickelodeon,Integrated Marketing,Integrated Marketing,2,Planning,Planning,,, 
Nickelodeon,Integrated Marketing,Integrated Marketing,2,Processes,Processes,,,
Nickelodeon,Research,Research,3,Television,Television,,,"	"
Nickelodeon,Research,Research,3,Digital,Digital,,,"	"
Nickelodeon,Research,Research,3,VOD,VOD,,,"	"
Nickelodeon,Research,Research,3,Cross-Platform,Cross-Platform,,," 	"
Nickelodeon,Research,Research,3,NickNets Catalog,NickNets Catalog,,,"	"
Nickelodeon,Research,Research,3,Kids Quarterly Report,Kids Quarterly Report,Q4 2014,,
Nickelodeon,Research,Research,3,Kids Quarterly Report,Kids Quarterly Report,Q1 2015,,
Nickelodeon,Research,Research,3,Kids Quarterly Report,Kids Quarterly Report,Q2 2015,,
Nickelodeon,Research,Research,3,Kids Quarterly Report,Kids Quarterly Report,Q3 2015,,
Nickelodeon,Research,Research,3,Kids Quarterly Report,Kids Quarterly Report,Q4 2015,,
Nickelodeon,Research,Research,3,Primary Research Studies,Primary Research Studies,,,"	"
Nickelodeon,Research,Research,3,Nick Research Blog,Nick Research Blog,,,"	"
Nickelodeon,Research,Research,3,VMN Insights Newsletter,VMN Insights Newsletter,,,"	"
Nickelodeon,Videos and Graphics,Videos & Graphics,4,Videos,Videos,Nick Jr,,
Nickelodeon,Videos and Graphics,Videos & Graphics,4,Videos,Videos,Nick,,
Nickelodeon,Videos and Graphics,Videos & Graphics,4,Videos,Videos,Nicktoons,,
Nickelodeon,Videos and Graphics,Videos & Graphics,4,Videos,Videos,TeenNick,,
Nickelodeon,Videos and Graphics,Videos & Graphics,4,Videos,Videos,Nick Nite,,
Nickelodeon,Videos and Graphics,Videos & Graphics,4,Videos,Videos,NickMom,,
Nickelodeon,Videos and Graphics,Videos & Graphics,4,Videos,Videos,Uber Cross-Network,,
Nickelodeon,Videos and Graphics,Videos & Graphics,4,PPT Templates,PPT Templates,,,"	"
Nickelodeon,Videos and Graphics,Videos & Graphics,4,Logos,Logos,,,"	"
Nickelodeon,Videos and Graphics,Videos & Graphics,4,Images & Graphics,Images and Graphics,,,"	"
Nickelodeon,Videos and Graphics,Videos & Graphics,4,NickCentral,NickCentral,,,"	"
Nickelodeon,Videos and Graphics,Videos & Graphics,4,PromoView,PromoView,,,"	"
Nickelodeon,Videos and Graphics,Videos & Graphics,4,Sizzles (CRL),Sizzles (CRL),,,"	"
Nickelodeon,Videos and Graphics,Videos & Graphics,4,Advertiser Spots (ARL),Advertiser Spots (ARL),,,"	"
Nickelodeon,Videos and Graphics,Videos & Graphics,4,Ad Products Portal,Ad Products Portal,,,
Nickelodeon,Other,Other,5,Strategy & Analysis,Strategy and Analysis,,,"	"
Nickelodeon,Other,Other,5,Partner Emails,Partner Emails,,,"	"
Nickelodeon,Other,Other,5,Ad Sales Events,Ad Sales Events,,,"	"
Nickelodeon,Other,Other,5,Employee Materials,Employee Materials,Employee Newsletter,,
Nickelodeon,Other,Other,5,Employee Materials,Employee Materials,New Hire Materials,,
Nickelodeon,Other,Other,5,Employee Materials,Employee Materials,Training Materials,,
Nickelodeon,Other,Other,5,Premiums,Premiums,,,"	"
Nickelodeon,Other,Other,5,Nick Shop,Nick Shop,,,"	"
Nickelodeon,Other,Other,5,Nick 101,Nick 101,,,"	"
